,term,weight
10164563,filter grayscale 100,0.002333785462372258
5154624,border 1px solid,0.0015563085152466092
32076940,transform none important,0.001555856974914831
11829281,important mood active,0.001555856974914831
22376805,opacity transform none,0.001555856974914831
33683781,yang ada di,0.0010949758371116872
5865486,cmd push function,0.000943195989014975
25670272,push function googletag,0.000943195989014975
10329756,function googletag display,0.000943195989014975
10692233,googletag cmd push,0.0009281362148496962
11840760,inactive img mood,0.0007779284874574155
90423,100 opacity transform,0.0007779284874574155
29210193,solid 0081c6 important,0.0007779284874574155
32631,0081c6 webkit filter,0.0007779284874574155
21306142,mood inactive webkit,0.0007779284874574155
32630,0081c6 important mood,0.0007779284874574155
21306141,mood inactive img,0.0007779284874574155
90233,100 moz filter,0.0007779284874574155
21306140,mood inactive border,0.0007779284874574155
21306020,mood active img,0.0007779284874574155
21306019,mood active color,0.0007779284874574155
21306018,mood active border,0.0007779284874574155
33400148,webkit filter grayscale,0.0007779284874574155
11840761,inactive webkit filter,0.0007779284874574155
22081009,none moz filter,0.0007779284874574155
11840759,inactive border 1px,0.0007779284874574155
10164840,filter none filter,0.0007779284874574155
312009,1px solid 0081c6,0.0007779284874574155
312011,1px solid ddd,0.0007779284874574155
5903500,color 0081c6 webkit,0.0007779284874574155
11829282,important mood inactive,0.0007779284874574155
10741891,grayscale 100 filter,0.0007779284874574155
10741892,grayscale 100 moz,0.0007779284874574155
10741893,grayscale 100 opacity,0.0007779284874574155
11813376,img mood active,0.0007779284874574155
11813377,img mood inactive,0.0007779284874574155
7314809,ddd important mood,0.0007779284874574155
1094681,active border 1px,0.0007779284874574155
22081011,none opacity transform,0.0007779284874574155
1094706,active color 0081c6,0.0007779284874574155
87313,100 filter grayscale,0.0007779284874574155
29210615,solid ddd important,0.0007779284874574155
22080916,none important mood,0.0007779284874574155
1094904,active img mood,0.0007779284874574155
10164841,filter none moz,0.0007779284874574155
33400149,webkit filter none,0.0007779284874574155
22080913,none filter none,0.0007779284874574155
10164842,filter none opacity,0.0007779284874574155
21401471,moz filter grayscale,0.0007779284874574155
21401472,moz filter none,0.0007779284874574155
